%!PS-Adobe-3.0 EPSF-3.0
%%BoundingBox: 0 0 284 241
%%LanguageLevel: 2
%%Creator: OriginLab Corporation
%%Title: (Z:\tmp\Graph1.eps)
%%CreationDate: Sun Jul 10 09:00:13 2022
%%EndComments

/OriginLab::PSL1 128 dict dup begin def
/Save0 save def
%%BeginResource: procset OriginLab::PSL1
/wd{1 index where{pop pop pop}{bind def}ifelse}bind def
/setcmykcolor{1 sub 4 1 roll 3{3 index add neg dup 0 lt{pop 0}if 3 1 roll}repeat setrgbcolor pop}wd
/selectfont{dup type/arraytype eq{exch findfont exch makefont setfont}{exch findfont exch scalefont setfont}ifelse}wd
/xshow{1 index length 0 le{}{currentpoint exch 3 index length 1 sub 0 exch 1 exch{dup 5 index exch 1 getinterval show 3 index exch get add 2 copy exch moveto}for pop pop}ifelse pop pop}wd
/glyphshow{matrix currentmatrix exch currentfont dup/FontMatrix get concat currentpoint translate
 dup/Metrics get 2 index get 0 4 2 roll gsave/CharProcs get exch 2 copy known not{pop/.notdef}if
 get exec fill grestore moveto setmatrix}wd
/grayimage/image load def/rgbtogray{cvx exec dup length 3 idiv 1 sub 0 exch 1 exch{dup 3 mul dup 3 index exch get 255 div .3 mul exch
 1 add dup 4 index exch get 255 div .59 mul exch 1 add 4 index exch get 255 div .11 mul add add
 255 mul dup 255 gt{255}if round cvi 2 index 3 1 roll put}for dup length 3 idiv 0 exch getinterval}bind def
/colorimage{0 setgray pop pop cvlit/rgbtogray cvx 2 packedarray cvx grayimage}wd
/bd{bind def}bind def/ld{load def}bd/ed{exch def}bd/xd{cvx def}bd
/np/newpath ld/a/arc ld/m/moveto ld/l/lineto ld/c/curveto ld/rm/rmoveto ld/rl/rlineto ld/rc/rcurveto ld/cp/closepath ld/cpt/currentpoint ld
/tr/translate ld/sc/scale ld/ro/rotate ld/t/transform ld/it/itransform ld/dt/dtransform ld/idt/idtransform ld
/mtx/matrix ld/cmtx/currentmatrix ld/dmtx/defaultmatrix ld/smtx/setmatrix ld/catmtx/concatmatrix ld
/sw/setlinewidth ld/scap/setlinecap ld/sj/setlinejoin ld/sm/setmiterlimit ld/sd/setdash ld/rgb/setrgbcolor ld/crgb/currentrgbcolor ld/cmyk/setcmykcolor ld/gs/gsave ld/gr/grestore ld
/st/stroke ld/fi/fill ld/eofi/eofill ld/cl/clip ld/eocl/eoclip ld
/df/definefont ld/ff/findfont ld/sf/setfont ld/scf/scalefont ld/self/selectfont ld/cf/currentfont ld
/s/show ld/xs/xshow ld/gls/glyphshow ld/xgls{cpt 3 1 roll add exch 3 -1 roll gls m}bd
/cd/currentdict ld/i/index ld
/DrawBox{4 2 roll m 1 index 0 rl 0 exch rl neg 0 rl cp}bd
/DrawBcc{4 2 roll m 2 copy 0 lt exch 0 lt xor{dup 0 exch rl exch 0 rl neg 0 exch rl}{exch dup 0 rl exch 0 exch rl neg 0 rl}ifelse cp}bd
/rectline{dup type/arraytype eq{dup length 0 exch 4 exch 4 sub{0 1 3{3 copy add get 4 1 roll pop}for pop 5 1 roll DrawBox}for pop}{DrawBox}ifelse}bd
/rectpath{dup type/arraytype eq{dup length 0 exch 4 exch 4 sub{0 1 3{3 copy add get 4 1 roll pop}for pop 5 1 roll DrawBcc}for pop}{DrawBcc}ifelse}bd
/pathproc{[{/m cvx}{/l cvx}{/c cvx}{/cp cvx}pathforall]cvx}bd
/L1img/image ld/L1idx[{0}
 {dup 7 and 3 1 roll -3 bitshift get exch 7 sub 1 mul bitshift  1 and}bind 1 index dup
 {dup 1 and 3 1 roll -1 bitshift get exch 1 sub 4 mul bitshift 15 and}bind 1 index dup dup
 {get}bind]def
/image{dup type/dicttype eq {dup/ImgCS get 0 get/Indexed eq}{false}ifelse
 {begin Width Height 8 ImageMatrix {rgb_string rgb_lookup
 cd/DataSource get dup type/filetype eq
 {mystring readstring pop}{exec}ifelse
 dup length 0 ne
 {L1idx BitsPerComponent get 0 1 Width 1 sub
 {3 copy exch exec exch 3 mul exch
 3 mul dup 5 index exch get exch 1 add dup 6 index exch get exch 1 add 6 index exch get
 7 index exch 4 index 2 add exch put 6 index exch 3 index 1 add exch put 5 index exch 2 index exch put pop
 }for pop pop pop }{pop pop pop ()}ifelse }false 3 colorimage end} {dup type/dicttype eq
 {{dup mark exch L1img pop pop}stopped{cleartomark begin Width Height BitsPerComponent ImageMatrix
 {cd/DataSource get dup type/filetype eq {mystring readstring pop}{exec}ifelse
 }false 3 colorimage end} if}{L1img}ifelse}ifelse
 }bd
/L1imgmask/imagemask ld/imagemask{dup type/dicttype eq
 {{dup mark exch L1imgmask pop pop}stopped {cleartomark begin Width Height polarityflag ImageMatrix
 {cd/DataSource get dup type/filetype eq {mystring readstring pop}{exec}ifelse
 }L1imgmask end}if}{L1imgmask}ifelse
 }bd
%%EndResource
/rectclip{np rectpath clip np}wd
/rectfill{gs np rectpath fi gr}wd
/rectstroke{gs np dup type/arraytype eq{dup length 6 eq}{false}ifelse{1 index type/arraytype eq{exch}{5 1 roll}ifelse rectline concat st}{rectline st}ifelse gr}wd
%%BeginFont: /MC1_DejaVu-SansBold
12 dict begin
/FontInfo 8 dict dup begin
/ItalicAngle 0 def
/UnderlinePosition -130.00 def
/UnderlineThickness 90.00 def
/StrikeoutPosition 530.00 def
/StrikeoutThickness 102.00 def
/isFixedPitch false def
end readonly def
/FontName /MC1_DejaVu-SansBold def
/FontType 3 def
/FontMatrix [1 2048 div 0 0 1 2048 div 0 0] def
/FontBBox [-2190 -850 4045 2405] def
/Encoding 256 array def 0 1 255{Encoding exch/.notdef put}for
Encoding 32/s32 put
Encoding 48/s48 put
Encoding 49/s49 put
Encoding 50/s50 put
Encoding 52/s52 put
Encoding 54/s54 put
Encoding 56/s56 put
/BoundingBoxes 8 dict def
BoundingBoxes begin
/s32 [0 -483 713 1901] def
/s48 [0 -483 1425 1901] def
/s49 [0 -483 1425 1901] def
/s50 [0 -483 1425 1901] def
/s52 [0 -483 1425 1901] def
/s54 [0 -483 1425 1901] def
/s56 [0 -483 1425 1901] def
end
/Metrics 8 dict def
 Metrics begin
/s32 713 def
/s48 1425 def
/s49 1425 def
/s50 1425 def
/s52 1425 def
/s54 1425 def
/s56 1425 def
end
/CharProcs 8 dict def
CharProcs begin
/.notdef {} def
/s48 {
942 748 m
942 934.67 924.5 1066.17 889.5 1142.5 c
854.5 1218.83 795.67 1257 713 1257 c
630.33 1257 571.33 1218.83 536 1142.5 c
500.67 1066.17 483 934.67 483 748 c
483 559.33 500.67 426.33 536 349 c
571.33 271.67 630.33 233 713 233 c
795 233 853.67 271.67 889 349 c
924.33 426.33 942 559.33 942 748 c
closepath 1327 745 m
1327 497.67 1273.67 306.83 1167 172.5 c
1060.33 38.17 909 -29 713 -29 c
516.33 -29 364.67 38.17 258 172.5 c
151.33 306.83 98 497.67 98 745 c
98 993 151.33 1184.17 258 1318.5 c
364.67 1452.83 516.33 1520 713 1520 c
909 1520 1060.33 1452.83 1167 1318.5 c
1273.67 1184.17 1327 993 1327 745 c
closepath } bind def
/s49 {
240 266 m
580 266 240 266 580 266 c
580 1231 580 266 580 1231 c
231 1159 580 1231 231 1159 c
231 1421 231 1159 231 1421 c
578 1493 231 1421 578 1493 c
944 1493 578 1493 944 1493 c
944 266 944 1493 944 266 c
1284 266 944 266 1284 266 c
1284 0 1284 266 1284 0 c
240 0 1284 0 240 0 c
240 266 240 0 240 266 c
closepath } bind def
/s50 {
590 283 m
1247 283 590 283 1247 283 c
1247 0 1247 283 1247 0 c
162 0 1247 0 162 0 c
162 283 162 0 162 283 c
707 764 162 283 707 764 c
755.67 808 791.67 851 815 893 c
838.33 935 850 978.67 850 1024 c
850 1094 826.5 1150.33 779.5 1193 c
732.5 1235.67 670 1257 592 1257 c
532 1257 466.33 1244.17 395 1218.5 c
323.67 1192.83 247.33 1154.67 166 1104 c
166 1432 166 1104 166 1432 c
252.67 1460.67 338.33 1482.5 423 1497.5 c
507.67 1512.5 590.67 1520 672 1520 c
850.67 1520 989.5 1480.67 1088.5 1402 c
1187.5 1323.33 1237 1213.67 1237 1073 c
1237 991.67 1216 915.83 1174 845.5 c
1132 775.17 1043.67 681 909 563 c
590 283 909 563 590 283 c
closepath } bind def
/s52 {
754 1176 m
332 551 754 1176 332 551 c
754 551 332 551 754 551 c
754 1176 754 551 754 1176 c
closepath 690 1493 m
1118 1493 690 1493 1118 1493 c
1118 551 1118 1493 1118 551 c
1331 551 1118 551 1331 551 c
1331 272 1331 551 1331 272 c
1118 272 1331 272 1118 272 c
1118 0 1118 272 1118 0 c
754 0 1118 0 754 0 c
754 272 754 0 754 272 c
92 272 754 272 92 272 c
92 602 92 272 92 602 c
690 1493 92 602 690 1493 c
closepath } bind def
/s54 {
741 737 m
673.67 737 623.17 715.17 589.5 671.5 c
555.83 627.83 539 562.33 539 475 c
539 387.67 555.83 322.17 589.5 278.5 c
623.17 234.83 673.67 213 741 213 c
809 213 859.83 234.83 893.5 278.5 c
927.17 322.17 944 387.67 944 475 c
944 562.33 927.17 627.83 893.5 671.5 c
859.83 715.17 809 737 741 737 c
closepath 1217 1454 m
1217 1178 1217 1454 1217 1178 c
1153.67 1208 1094 1230.17 1038 1244.5 c
982 1258.83 927.33 1266 874 1266 c
759.33 1266 670 1234.17 606 1170.5 c
542 1106.83 504.67 1012.33 494 887 c
538 919.67 585.67 944.17 637 960.5 c
688.33 976.83 744.33 985 805 985 c
957.67 985 1080.83 940.33 1174.5 851 c
1268.17 761.67 1315 644.67 1315 500 c
1315 340 1262.67 211.83 1158 115.5 c
1053.33 19.17 913 -29 737 -29 c
543 -29 392.83 36.5 286.5 167.5 c
180.17 298.5 127 484.33 127 725 c
127 971.67 189.17 1165.5 313.5 1306.5 c
437.83 1447.5 608.33 1518 825 1518 c
893.67 1518 960.33 1512.67 1025 1502 c
1089.67 1491.33 1153.67 1475.33 1217 1454 c
closepath } bind def
/s56 {
713 668 m
641 668 585.67 648.33 547 609 c
508.33 569.67 489 513.33 489 440 c
489 366.67 508.33 310.5 547 271.5 c
585.67 232.5 641 213 713 213 c
784.33 213 839 232.5 877 271.5 c
915 310.5 934 366.67 934 440 c
934 514 915 570.5 877 609.5 c
839 648.5 784.33 668 713 668 c
closepath 432 795 m
341.33 822.33 273 864.33 227 921 c
181 977.67 158 1048.33 158 1133 c
158 1259 205 1355 299 1421 c
393 1487 531 1520 713 1520 c
893.67 1520 1031 1487.17 1125 1421.5 c
1219 1355.83 1266 1259.67 1266 1133 c
1266 1048.33 1242.83 977.67 1196.5 921 c
1150.17 864.33 1081.67 822.33 991 795 c
1092.33 767 1168.83 721.5 1220.5 658.5 c
1272.17 595.5 1298 516 1298 420 c
1298 272 1248.83 160.17 1150.5 84.5 c
1052.17 8.83 906.33 -29 713 -29 c
519 -29 372.5 8.83 273.5 84.5 c
174.5 160.17 125 272 125 420 c
125 516 150.83 595.5 202.5 658.5 c
254.17 721.5 330.67 767 432 795 c
closepath 522 1094 m
522 1034.67 538.5 989 571.5 957 c
604.5 925 651.67 909 713 909 c
773 909 819.33 925 852 957 c
884.67 989 901 1034.67 901 1094 c
901 1153.33 884.67 1198.83 852 1230.5 c
819.33 1262.17 773 1278 713 1278 c
651.67 1278 604.5 1262 571.5 1230 c
538.5 1198 522 1152.67 522 1094 c
closepath } bind def
end
/BuildGlyph {
 exch dup /Metrics get 2 index get 0 setcharwidth
/CharProcs get exch 2 copy known not{pop/.notdef}if get exec fill}bind def
/BuildChar {
1 index /Encoding get exch get
1 index /BuildGlyph get exec
} bind def
currentdict end /MC1_DejaVu-SansBold exch definefont pop
%%EndFont
%%BeginFont: /MC2_DejaVu-SansBold
12 dict begin
/FontInfo 8 dict dup begin
/ItalicAngle 0 def
/UnderlinePosition -130.00 def
/UnderlineThickness 90.00 def
/StrikeoutPosition 530.00 def
/StrikeoutThickness 102.00 def
/isFixedPitch false def
end readonly def
/FontName /MC2_DejaVu-SansBold def
/FontType 3 def
/FontMatrix [1 2048 div 0 0 1 2048 div 0 0] def
/FontBBox [-2190 -850 4045 2405] def
/Encoding 256 array def 0 1 255{Encoding exch/.notdef put}for
Encoding 32/s32 put
Encoding 65/s65 put
Encoding 84/s84 put
Encoding 88/s88 put
Encoding 89/s89 put
Encoding 101/s101 put
Encoding 105/s105 put
Encoding 108/s108 put
Encoding 115/s115 put
Encoding 116/s116 put
Encoding 120/s120 put
/BoundingBoxes 12 dict def
BoundingBoxes begin
/s32 [0 -483 713 1901] def
/s65 [0 -483 1585 1901] def
/s84 [0 -483 1397 1901] def
/s88 [0 -483 1579 1901] def
/s89 [-20 -483 1483 1901] def
/s101 [0 -483 1389 1901] def
/s105 [0 -483 702 1901] def
/s108 [0 -483 702 1901] def
/s115 [0 -483 1219 1901] def
/s116 [0 -483 979 1901] def
/s120 [0 -483 1321 1901] def
end
/Metrics 12 dict def
 Metrics begin
/s32 713 def
/s65 1585 def
/s84 1397 def
/s88 1579 def
/s89 1483 def
/s101 1389 def
/s105 702 def
/s108 702 def
/s115 1219 def
/s116 979 def
/s120 1321 def
end
/CharProcs 12 dict def
CharProcs begin
/.notdef {} def
/s65 {
1094 272 m
492 272 1094 272 492 272 c
397 0 492 272 397 0 c
10 0 397 0 10 0 c
563 1493 10 0 563 1493 c
1022 1493 563 1493 1022 1493 c
1575 0 1022 1493 1575 0 c
1188 0 1575 0 1188 0 c
1094 272 1188 0 1094 272 c
closepath 588 549 m
997 549 588 549 997 549 c
793 1143 997 549 793 1143 c
588 549 793 1143 588 549 c
closepath } bind def
/s84 {
10 1493 m
1386 1493 10 1493 1386 1493 c
1386 1202 1386 1493 1386 1202 c
891 1202 1386 1202 891 1202 c
891 0 891 1202 891 0 c
506 0 891 0 506 0 c
506 1202 506 0 506 1202 c
10 1202 506 1202 10 1202 c
10 1493 10 1202 10 1493 c
closepath } bind def
/s88 {
1020 762 m
1538 0 1020 762 1538 0 c
1137 0 1538 0 1137 0 c
788 510 1137 0 788 510 c
442 0 788 510 442 0 c
39 0 442 0 39 0 c
557 762 39 0 557 762 c
59 1493 557 762 59 1493 c
461 1493 59 1493 461 1493 c
788 1012 461 1493 788 1012 c
1114 1493 788 1012 1114 1493 c
1518 1493 1114 1493 1518 1493 c
1020 762 1518 1493 1020 762 c
closepath } bind def
/s89 {
-20 1493 m
401 1493 -20 1493 401 1493 c
741 961 401 1493 741 961 c
1081 1493 741 961 1081 1493 c
1503 1493 1081 1493 1503 1493 c
934 629 1503 1493 934 629 c
934 0 934 629 934 0 c
549 0 934 0 549 0 c
549 629 549 0 549 629 c
-20 1493 549 629 -20 1493 c
closepath } bind def
/s101 {
1290 563 m
1290 461 1290 563 1290 461 c
453 461 1290 461 453 461 c
461.67 377 492 314 544 272 c
596 230 668.67 209 762 209 c
837.33 209 914.5 220.17 993.5 242.5 c
1072.5 264.83 1153.67 298.67 1237 344 c
1237 68 1237 344 1237 68 c
1152.33 36 1067.67 11.83 983 -4.5 c
898.33 -20.83 813.67 -29 729 -29 c
526.33 -29 368.83 22.5 256.5 125.5 c
144.17 228.5 88 373 88 559 c
88 741.67 143.17 885.33 253.5 990 c
363.83 1094.67 515.67 1147 709 1147 c
885 1147 1025.83 1094 1131.5 988 c
1237.17 882 1290 740.33 1290 563 c
closepath 922 682 m
922 750 902.17 804.83 862.5 846.5 c
822.83 888.17 771 909 707 909 c
637.67 909 581.33 889.5 538 850.5 c
494.67 811.5 467.67 755.33 457 682 c
922 682 457 682 922 682 c
closepath } bind def
/s105 {
172 1120 m
530 1120 172 1120 530 1120 c
530 0 530 1120 530 0 c
172 0 530 0 172 0 c
172 1120 172 0 172 1120 c
closepath 172 1556 m
530 1556 172 1556 530 1556 c
530 1264 530 1556 530 1264 c
172 1264 530 1264 172 1264 c
172 1556 172 1264 172 1556 c
closepath } bind def
/s108 {
172 1556 m
530 1556 172 1556 530 1556 c
530 0 530 1556 530 0 c
172 0 530 0 172 0 c
172 1556 172 0 172 1556 c
closepath } bind def
/s115 {
1047 1085 m
1047 813 1047 1085 1047 813 c
970.33 845 896.33 869 825 885 c
753.67 901 686.33 909 623 909 c
555 909 504.5 900.5 471.5 883.5 c
438.5 866.5 422 840.33 422 805 c
422 776.33 434.5 754.33 459.5 739 c
484.5 723.67 529.33 712.33 594 705 c
657 696 594 705 657 696 c
840.33 672.67 963.67 634.33 1027 581 c
1090.33 527.67 1122 444 1122 330 c
1122 210.67 1078 121 990 61 c
902 1 770.67 -29 596 -29 c
522 -29 445.5 -23.17 366.5 -11.5 c
287.5 0.17 206.33 17.67 123 41 c
123 313 123 41 123 313 c
194.33 278.33 267.5 252.33 342.5 235 c
417.5 217.67 493.67 209 571 209 c
641 209 693.67 218.67 729 238 c
764.33 257.33 782 286 782 324 c
782 356 769.83 379.83 745.5 395.5 c
721.17 411.17 672.67 423.33 600 432 c
537 440 600 432 537 440 c
377.67 460 266 497 202 551 c
138 605 106 687 106 797 c
106 915.67 146.67 1003.67 228 1061 c
309.33 1118.33 434 1147 602 1147 c
668 1147 737.33 1142 810 1132 c
882.67 1122 961.67 1106.33 1047 1085 c
closepath } bind def
/s116 {
563 1438 m
563 1120 563 1438 563 1120 c
932 1120 563 1120 932 1120 c
932 864 932 1120 932 864 c
563 864 932 864 563 864 c
563 389 563 864 563 389 c
563 337 573.33 301.83 594 283.5 c
614.67 265.17 655.67 256 717 256 c
901 256 717 256 901 256 c
901 0 901 256 901 0 c
594 0 901 0 594 0 c
452.67 0 352.5 29.5 293.5 88.5 c
234.5 147.5 205 247.67 205 389 c
205 864 205 389 205 864 c
27 864 205 864 27 864 c
27 1120 27 864 27 1120 c
205 1120 27 1120 205 1120 c
205 1438 205 1120 205 1438 c
563 1438 205 1438 563 1438 c
closepath } bind def
/s120 {
455 573 m
51 1120 455 573 51 1120 c
430 1120 51 1120 430 1120 c
659 788 430 1120 659 788 c
891 1120 659 788 891 1120 c
1270 1120 891 1120 1270 1120 c
866 575 1270 1120 866 575 c
1290 0 866 575 1290 0 c
911 0 1290 0 911 0 c
659 354 911 0 659 354 c
410 0 659 354 410 0 c
31 0 410 0 31 0 c
455 573 31 0 455 573 c
closepath } bind def
end
/BuildGlyph {
 exch dup /Metrics get 2 index get 0 setcharwidth
/CharProcs get exch 2 copy known not{pop/.notdef}if get exec fill}bind def
/BuildChar {
1 index /Encoding get exch get
1 index /BuildGlyph get exec
} bind def
currentdict end /MC2_DejaVu-SansBold exch definefont pop
%%EndFont
%%BeginFont: /MC3_Courier
12 dict begin
/FontInfo 8 dict dup begin
/ItalicAngle 0 def
/UnderlinePosition 0.00 def
/UnderlineThickness 0.00 def
/StrikeoutPosition 0.00 def
/StrikeoutThickness 0.00 def
/isFixedPitch false def
end readonly def
/FontName /MC3_Courier def
/FontType 3 def
/FontMatrix [1 0 div 0 0 1 0 div 0 0] def
/FontBBox [0 0 0 0] def
/Encoding 256 array def 0 1 255{Encoding exch/.notdef put}for
Encoding 32/s32 put
Encoding 66/s66 put
/CharProcs 3 dict def
CharProcs begin
/.notdef {} def
end
/BuildGlyph {
 exch dup /Metrics get 2 index get 0 setcharwidth
/CharProcs get exch 2 copy known not{pop/.notdef}if get exec fill}bind def
/BuildChar {
1 index /Encoding get exch get
1 index /BuildGlyph get exec
} bind def
currentdict end /MC3_Courier exch definefont pop
%%EndFont
0 0 283.12 240.04 rectpath cl np
/clipproc{clippath{[{/m cvx}{/l cvx}{/c cvx}{/cp cvx}pathforall}stopped
{cleartomark[pathbbox exch 3 i sub exch 2 i sub/rectpath cvx}if]np}bd
/iclmtx mtx cmtx def/iclpath clipproc xd/clinit{pathproc initclip np iclpath cl np exec}bd
/clmove{pathproc 3 1 roll clippath pathproc 2 i neg 2 i neg tr initclip np exec cl tr np exec}bd
/clrect[gs np iclpath{pathbbox}stopped{0 0 283.12 240.04 }if gr]def
/cloper{mtx cmtx iclmtx smtx exch exec smtx}bd
/cland{{exch cvx exec}cloper}bd
/clcopy{{exch clinit cvx exec}cloper}bd
/cldiff{{exch pathbbox 4 -1 roll clrect 0 get 2 copy gt{exch}if pop 4 1 roll
 3 -1 roll clrect 1 get 2 copy gt{exch}if pop 3 1 roll
 2 -1 roll clrect 2 get 2 copy lt{exch}if pop 2 1 roll
 1 -1 roll clrect 3 get 2 copy lt{exch}if pop 1 1 roll
 exch 3 i sub exch 2 i sub rectpath cvx exec}cloper}bd
/icl{{clinit}cloper}bd
0.128009 0.127908 sc
-43.48 97.57 tr

/initmtx mtx cmtx def
gs
gs
[0.75 0 0 -0.750656 0 1876.65] concat
1 -1 sc
/MC1_DejaVu-SansBold 89 self 686 -2251 m
(0)[61 ] xs
1 -1 sc
gr
gs
[0.75 0 0 -0.750656 0 1876.65] concat
1 -1 sc
/MC1_DejaVu-SansBold 89 self 936 -2251 m
(2)[61 ] xs
1 -1 sc
gr
gs
[0.75 0 0 -0.750656 0 1876.65] concat
1 -1 sc
/MC1_DejaVu-SansBold 89 self 1186 -2251 m
(4)[61 ] xs
1 -1 sc
gr
gs
[0.75 0 0 -0.750656 0 1876.65] concat
1 -1 sc
/MC1_DejaVu-SansBold 89 self 1436 -2251 m
(6)[61 ] xs
1 -1 sc
gr
gs
[0.75 0 0 -0.750656 0 1876.65] concat
1 -1 sc
/MC1_DejaVu-SansBold 89 self 1686 -2251 m
(8)[61 ] xs
1 -1 sc
gr
gs
[0.75 0 0 -0.750656 0 1876.65] concat
1 -1 sc
/MC1_DejaVu-SansBold 89 self 1906 -2251 m
(10)[61 61 ] xs
1 -1 sc
gr
gs
[0.75 0 0 -0.750656 0 1876.65] concat
1 -1 sc
/MC1_DejaVu-SansBold 89 self 2156 -2251 m
(12)[61 61 ] xs
1 -1 sc
gr
gs
[0.75 0 0 -0.750656 0 1876.65] concat
1 -1 sc
/MC1_DejaVu-SansBold 89 self 2406 -2251 m
(14)[61 61 ] xs
1 -1 sc
gr
gs
[0.75 0 0 -0.750656 0 1876.65] concat
1 -1 sc
/MC1_DejaVu-SansBold 89 self 2656 -2251 m
(16)[61 61 ] xs
1 -1 sc
gr
[0.75 0 0 -0.750656 0 1876.65] concat
592 2143 m
592 2126 l
7 sw
1 sj
1 scap
st
717 2160 m
717 2126 l
st
842 2143 m
842 2126 l
st
967 2160 m
967 2126 l
st
1092 2143 m
1092 2126 l
st
1217 2160 m
1217 2126 l
st
1342 2143 m
1342 2126 l
st
1467 2160 m
1467 2126 l
st
1592 2143 m
1592 2126 l
st
1717 2160 m
1717 2126 l
st
1842 2143 m
1842 2126 l
st
1967 2160 m
1967 2126 l
st
2092 2143 m
2092 2126 l
st
2217 2160 m
2217 2126 l
st
2342 2143 m
2342 2126 l
st
2467 2160 m
2467 2126 l
st
2592 2143 m
2592 2126 l
st
2717 2160 m
2717 2126 l
st
2842 2143 m
2842 2126 l
st
592 2126 m
2842 2126 l
st
gs
1 -1 sc
/MC1_DejaVu-SansBold 89 self 474 -2046 m
(0)[61 ] xs
1 -1 sc
gr
gs
1 -1 sc
/MC1_DejaVu-SansBold 89 self 474 -1843 m
(2)[61 ] xs
1 -1 sc
gr
gs
1 -1 sc
/MC1_DejaVu-SansBold 89 self 474 -1639 m
(4)[61 ] xs
1 -1 sc
gr
gs
1 -1 sc
/MC1_DejaVu-SansBold 89 self 474 -1436 m
(6)[61 ] xs
1 -1 sc
gr
gs
1 -1 sc
/MC1_DejaVu-SansBold 89 self 474 -1233 m
(8)[61 ] xs
1 -1 sc
gr
gs
1 -1 sc
/MC1_DejaVu-SansBold 89 self 413 -1029 m
(10)[61 61 ] xs
1 -1 sc
gr
gs
1 -1 sc
/MC1_DejaVu-SansBold 89 self 413 -826 m
(12)[61 61 ] xs
1 -1 sc
gr
gs
1 -1 sc
/MC1_DejaVu-SansBold 89 self 413 -622 m
(14)[61 61 ] xs
1 -1 sc
gr
gs
1 -1 sc
/MC1_DejaVu-SansBold 89 self 413 -419 m
(16)[61 61 ] xs
1 -1 sc
gr
575 2126 m
592 2126 l
st
558 2024 m
592 2024 l
st
575 1923 m
592 1923 l
st
558 1821 m
592 1821 l
st
575 1719 m
592 1719 l
st
558 1617 m
592 1617 l
st
575 1516 m
592 1516 l
st
558 1414 m
592 1414 l
st
575 1312 m
592 1312 l
st
558 1211 m
592 1211 l
st
575 1109 m
592 1109 l
st
558 1007 m
592 1007 l
st
575 905 m
592 905 l
st
558 804 m
592 804 l
st
575 702 m
592 702 l
st
558 600 m
592 600 l
st
575 498 m
592 498 l
st
558 397 m
592 397 l
st
575 295 m
592 295 l
st
592 2126 m
592 295 l
st
gs
pathproc 592 295 2251 1832 np rectpath
/eocl cland
np exec
946 1838 m
863 1906 l
3 sw
st
1321 1533 m
988 1804 l
st
2571 515 m
1363 1499 l
st
826 1907 32 32 rectfill
1363 1499 m
826 1907 32 32 rectstroke
951 1805 32 32 rectfill
951 1805 32 32 rectstroke
1326 1500 32 32 rectfill
1326 1500 32 32 rectstroke
2576 482 32 32 rectfill
2576 482 32 32 rectstroke
gr
gs
gs
1 -1 sc
335 -1649 tr
90 ro
/MC2_DejaVu-SansBold 114 self 0 0 m
(Y Axis Title)[83 40 88 74 39 68 40 78 39 55 39 77 ] xs
1 -1 sc
gr
gr
gs
1 -1 sc
/MC2_DejaVu-SansBold 114 self 1355 -2433 m
(X Axis Title)[88 40 88 74 39 68 40 78 39 55 39 77 ] xs
1 -1 sc
gr
1 1 1 rgb
695 325 322 99 rectfill
592 295 m
4 sw
0 0 0 rgb
695 325 322 99 rectstroke
gs
gs
gs
712 377 m
771 377 l
3 sw
st
835 377 m
894 377 l
st
gr
787 362 32 32 rectfill
3 sw
787 362 32 32 rectstroke
gr
1 -1 sc
/MC3_Courier 94 self 894 -409 m
( )[56 ] xs
1 -1 sc
gs
1 -1 sc
950 -409 m
(B)[56 ] xs
1 -1 sc
gr
gr
gr
Save0 restore end
showpage
%%EOF
